<svg width="22" height="22" viewBox="0 0 22 22" fill="none" xmlns="http://www.w3.org/2000/svg">
<path fill-rule="evenodd" clip-rule="evenodd" d="M21.5983 10.7991C21.5983 16.7634 16.7633 21.5981 10.7991 21.5981C4.83496 21.5981 0 16.7634 0 10.7991C0 4.83496 4.83496 0 10.7991 0C16.7633 0 21.5983 4.83496 21.5983 10.7991ZM11.5869 11.2219H13.5138L13.7689 8.74316H11.587V7.28296C11.587 6.73535 11.949 6.60669 12.2063 6.60669H13.7755V4.19849L11.6129 4.18945C9.21277 4.18945 8.66736 5.9873 8.66736 7.13525V8.74072H7.27881V11.2219H8.66736V18.2815H11.5869V11.2219Z" fill="white"/>
</svg>
