<svg width="13" height="14" viewBox="0 0 13 14" fill="none" xmlns="http://www.w3.org/2000/svg">
<path d="M12.7419 1.19995H0.741943V13.2H12.7419V1.19995Z" stroke="white" stroke-width="0.434" stroke-miterlimit="10"/>
<path d="M3.24207 5.29998C3.14207 5.39998 3.14209 5.39999 3.14209 5.49999C3.14209 5.59999 3.14207 5.7 3.24207 5.7L6.54211 8.99999C6.64211 9.09999 6.64207 9.09996 6.74207 9.09996C6.84207 9.09996 6.94202 9.09999 6.94202 8.99999L10.1421 5.7C10.2421 5.6 10.2421 5.39998 10.1421 5.29998C10.0421 5.19998 9.84207 5.19998 9.74207 5.29998L6.74207 8.40001L3.64209 5.29998C3.64209 5.19998 3.44207 5.19998 3.24207 5.29998Z" fill="white"/>
</svg>
