<svg width="27" height="27" viewBox="0 0 27 27" fill="none" xmlns="http://www.w3.org/2000/svg">
<path d="M18.6287 13.694C18.6287 16.5271 16.3218 18.834 13.4888 18.834C10.6557 18.834 8.34877 16.5271 8.34877 13.694C8.34877 10.861 10.6557 8.55404 13.4888 8.55404C16.3218 8.55404 18.6287 10.861 18.6287 13.694ZM13.4888 6.97561C9.76532 6.97561 6.72988 10.011 6.72988 13.7345C6.72988 17.4579 9.76532 20.4933 13.4888 20.4933C17.2122 20.4933 20.2476 17.4579 20.2476 13.7345C20.2476 9.97056 17.2122 6.97561 13.4888 6.97561ZM14.2982 2.56416C14.2982 2.11897 13.934 1.71423 13.4483 1.71423C13.0031 1.71423 12.5983 2.0785 12.5983 2.56416V4.70918C12.5983 5.15438 12.9626 5.55909 13.4483 5.55909C13.8935 5.55909 14.2982 5.19485 14.2982 4.70918V2.56416ZM14.2982 22.7193C14.2982 22.2741 13.934 21.8694 13.4483 21.8694C13.0031 21.8694 12.5983 22.2336 12.5983 22.7193V24.8643C12.5983 25.3095 12.9626 25.7142 13.4483 25.7142C13.8935 25.7142 14.2982 25.35 14.2982 24.8643V22.7193ZM21.9474 6.40902C22.2712 6.08524 22.2712 5.55909 21.9474 5.23531C21.6237 4.91154 21.0975 4.91154 20.7737 5.23531L19.2762 6.73279C18.9525 7.05657 18.9525 7.58271 19.2762 7.90649C19.6 8.23027 20.1262 8.23027 20.4499 7.90649L21.9474 6.40902ZM7.70123 20.6957C8.025 20.3719 8.025 19.8458 7.70123 19.522C7.37745 19.1982 6.8513 19.1982 6.52752 19.522L5.03007 21.0194C4.7063 21.3432 4.7063 21.8694 5.03007 22.1932C5.35385 22.5169 5.88 22.5169 6.20378 22.1932L7.70123 20.6957ZM24.6186 14.5439C25.0638 14.5439 25.4685 14.1797 25.4685 13.694C25.4685 13.2488 25.1043 12.8441 24.6186 12.8441H22.4736C22.0284 12.8441 21.6237 13.2083 21.6237 13.694C21.6237 14.1392 21.9879 14.5439 22.4736 14.5439H24.6186ZM4.46345 14.5439C4.90865 14.5439 5.31336 14.1797 5.31336 13.694C5.31336 13.2488 4.94912 12.8441 4.46345 12.8441H2.31846C1.87327 12.8441 1.46851 13.2083 1.46851 13.694C1.46851 14.1392 1.83279 14.5439 2.31846 14.5439H4.46345ZM20.7737 22.1932C21.0975 22.5169 21.6237 22.5169 21.9474 22.1932C22.2712 21.8694 22.2712 21.3432 21.9474 21.0194L20.4499 19.522C20.1262 19.1982 19.6 19.1982 19.2762 19.522C18.9525 19.8458 18.9525 20.3719 19.2762 20.6957L20.7737 22.1932ZM6.48706 7.90649C6.81084 8.23027 7.33699 8.23027 7.66076 7.90649C7.98454 7.58271 7.98454 7.05657 7.66076 6.73279L6.16331 5.23531C5.83954 4.91154 5.31339 4.91154 4.98961 5.23531C4.66583 5.55909 4.66583 6.08524 4.98961 6.40902L6.48706 7.90649Z" fill="white"/>
</svg>
