<svg width="27" height="27" viewBox="0 0 27 27" fill="none" xmlns="http://www.w3.org/2000/svg">
<path fill-rule="evenodd" clip-rule="evenodd" d="M9.99887 5.90387C10.784 4.52525 12.2574 3.59692 13.9454 3.59692C15.6753 3.59692 17.1797 4.57182 17.9491 6.00715C18.3388 5.81116 18.7784 5.70093 19.2434 5.70093C20.4183 5.70093 21.4304 6.40464 21.8888 7.4174C23.9303 7.56073 25.5424 9.27828 25.5424 11.376C25.5424 13.0562 24.5082 14.4926 23.0474 15.0714C22.9929 15.1202 22.9287 15.1645 22.8533 15.2047C22.862 15.0903 22.8665 14.9747 22.8665 14.8581C22.8665 14.5962 22.8441 14.3396 22.8012 14.09C23.8247 13.6291 24.5424 12.5893 24.5424 11.376C24.5424 9.79892 23.332 8.52118 21.8188 8.41494L21.2238 8.37317L20.9778 7.82979C20.6736 7.15774 20.0072 6.70093 19.2434 6.70093C18.9381 6.70093 18.6521 6.77294 18.3983 6.90056L17.5279 7.33821L17.0677 6.47958C16.4638 5.35291 15.2888 4.59692 13.9454 4.59692C12.7466 4.59692 11.681 5.20074 11.0375 6.12886C12.3088 6.54542 13.364 7.44008 13.9912 8.60065C14.4361 8.37877 14.9378 8.25397 15.4686 8.25397C16.8097 8.25397 17.965 9.05064 18.4882 10.1972C20.8185 10.3594 22.6585 12.3039 22.6585 14.6787C22.6585 16.5808 21.478 18.2069 19.8107 18.8621C19.1414 19.4571 17.181 19.4571 11.9561 19.4571C7.29802 19.4571 5.23461 19.4571 4.36754 19.0355C2.60057 18.4108 1.33447 16.7235 1.33447 14.7402C1.33447 12.7968 2.55011 11.1377 4.26145 10.4839C4.55325 7.8889 6.7521 5.87207 9.42133 5.87207C9.61655 5.87207 9.80925 5.88286 9.99887 5.90387ZM4.8048 18.1362L4.75407 18.1115L4.7009 18.0927C3.32163 17.605 2.33447 16.2873 2.33447 14.7402C2.33447 13.2242 3.28212 11.9285 4.61833 11.418L5.18714 11.2007L5.25519 10.5956C5.49088 8.49967 7.268 6.87207 9.42133 6.87207C11.0136 6.87207 12.4007 7.76092 13.1115 9.0761L13.5715 9.92739L14.4375 9.49554C14.747 9.34121 15.0962 9.25397 15.4686 9.25397C16.4033 9.25397 17.2116 9.80836 17.5785 10.6123L17.8254 11.1534L18.4187 11.1948C20.2274 11.3207 21.6585 12.8316 21.6585 14.6787C21.6585 16.1567 20.7418 17.4217 19.4449 17.9314L19.2793 17.9965L19.1474 18.1138C19.1474 18.1137 19.1472 18.1139 19.1469 18.1141C19.1404 18.1186 19.0625 18.1732 18.8091 18.2321C18.5309 18.2969 18.125 18.3486 17.5312 18.3846C16.3425 18.4566 14.5845 18.4571 11.9561 18.4571C9.61657 18.4571 7.96304 18.4569 6.78383 18.4053C5.5523 18.3516 5.02478 18.2431 4.8048 18.1362Z" fill="white"/>
<path fill-rule="evenodd" clip-rule="evenodd" d="M6.29444 22.2415C6.40612 21.921 6.23688 21.5703 5.91643 21.4584C5.59598 21.3464 5.24567 21.5155 5.13399 21.8361L4.64768 23.2319C4.536 23.5524 4.70524 23.903 5.02568 24.015C5.34613 24.127 5.69644 23.9579 5.80813 23.6373L6.29444 22.2415ZM10.7572 22.2415C10.8689 21.921 10.6997 21.5703 10.3792 21.4584C10.0588 21.3464 9.70845 21.5155 9.59677 21.8361L9.11046 23.2319C8.99878 23.5524 9.16802 23.903 9.48847 24.015C9.80891 24.127 10.1592 23.9579 10.2709 23.6373L10.7572 22.2415ZM15.2433 22.2668C15.3549 21.9463 15.1857 21.5957 14.8653 21.4837C14.5448 21.3717 14.1945 21.5408 14.0828 21.8614L13.5965 23.2572C13.4848 23.5777 13.6541 23.9284 13.9745 24.0403C14.295 24.1523 14.6453 23.9832 14.7569 23.6626L15.2433 22.2668ZM19.3745 21.4584C19.695 21.5703 19.8642 21.921 19.7525 22.2415L19.2662 23.6373C19.1546 23.9579 18.8042 24.127 18.4838 24.015C18.1634 23.903 17.9941 23.5524 18.1058 23.2319L18.5921 21.8361C18.7037 21.5155 19.0541 21.3464 19.3745 21.4584Z" fill="white"/>
</svg>
