<svg width="27" height="27" viewBox="0 0 27 27" fill="none" xmlns="http://www.w3.org/2000/svg">
<mask id="mask0" mask-type="alpha" maskUnits="userSpaceOnUse" x="1" y="7" width="25" height="16">
<path fill-rule="evenodd" clip-rule="evenodd" d="M4.73669 21.9896C2.74798 21.2864 1.323 19.3875 1.323 17.1552C1.323 14.9679 2.69118 13.1007 4.61727 12.3648C4.94569 9.44423 7.42046 7.17432 10.4246 7.17432C12.647 7.17432 14.5796 8.41647 15.568 10.2453C16.0687 9.99558 16.6333 9.85511 17.2307 9.85511C18.7401 9.85511 20.0404 10.7517 20.6293 12.0422C23.252 12.2248 25.323 14.4132 25.323 17.086C25.323 19.2269 23.9942 21.057 22.1177 21.7945C21.3644 22.4641 19.158 22.4641 13.2775 22.4641C8.03492 22.4641 5.71257 22.4641 4.73669 21.9896Z" fill="white"/>
</mask>
<g mask="url(#mask0)">
<path d="M4.73664 21.9896L5.13928 21.1614L5.09258 21.1387L5.04361 21.1214L4.73664 21.9896ZM4.61722 12.3648L4.94586 13.225L5.46965 13.0249L5.53232 12.4677L4.61722 12.3648ZM15.5679 10.2452L14.7578 10.6831L15.1815 11.467L15.9789 11.0693L15.5679 10.2452ZM20.6292 12.0421L19.7915 12.4245L20.019 12.9227L20.5654 12.9607L20.6292 12.0421ZM22.1176 21.7944L21.7807 20.9374L21.6282 20.9973L21.5057 21.1062L22.1176 21.7944ZM5.04361 21.1214C3.41192 20.5444 2.2438 18.9858 2.2438 17.1552H0.4021C0.4021 19.7891 2.08395 22.0283 4.42967 22.8578L5.04361 21.1214ZM2.2438 17.1552C2.2438 15.3615 3.36522 13.8288 4.94586 13.225L4.2886 11.5046C2.01707 12.3724 0.4021 14.5743 0.4021 17.1552H2.2438ZM5.53232 12.4677C5.80905 10.0066 7.89548 8.09512 10.4246 8.09512V6.25342C6.94535 6.25342 4.08224 8.88176 3.70214 12.2619L5.53232 12.4677ZM10.4246 8.09512C12.2949 8.09512 13.9236 9.13946 14.7578 10.6831L16.378 9.80744C15.2355 7.69339 12.999 6.25342 10.4246 6.25342V8.09512ZM15.9789 11.0693C16.3872 10.8595 16.7452 10.7691 17.2307 10.7759V8.93422C16.5213 8.94106 15.7501 9.13152 15.1569 9.42119L15.9789 11.0693ZM17.2307 10.7759C18.3658 10.7759 19.3465 11.4494 19.7915 12.4245L21.467 11.6597C20.734 10.054 19.1144 8.93422 17.2307 8.93422V10.7759ZM20.5654 12.9607C22.7077 13.1099 24.4021 14.8992 24.4021 17.0859H26.2438C26.2438 13.9271 23.7962 11.3396 20.6932 11.1235L20.5654 12.9607ZM24.4021 17.0859C24.4021 18.8362 23.3164 20.3339 21.7807 20.9374L22.4543 22.6515C24.6721 21.7799 26.2438 19.6174 26.2438 17.0859H24.4021ZM21.5057 21.1062C21.4815 21.1278 21.3725 21.2065 21.0368 21.2846C20.6822 21.3686 20.2286 21.4213 19.5646 21.4611C18.2117 21.5436 16.2178 21.5432 13.2775 21.5432V23.3848C16.2178 23.3848 18.2674 23.3845 19.676 23.2995C20.3927 23.2557 20.9996 23.1828 21.4541 23.0784C21.9278 22.9683 22.3771 22.7957 22.7294 22.4826L21.5057 21.1062ZM13.2775 21.5432C10.6562 21.5432 8.78503 21.5434 7.44721 21.4847C6.06627 21.4244 5.43058 21.303 5.13928 21.1614L4.33401 22.8177C5.01859 23.1506 6.03202 23.2663 7.36685 23.3246C8.74485 23.3846 10.6562 23.3848 13.2775 23.3848V21.5432Z" fill="#DDDDDD"/>
</g>
<path fill-rule="evenodd" clip-rule="evenodd" d="M14.3303 7.32245C15.0307 7.83515 15.6129 8.50015 16.0283 9.26877C16.529 9.01905 17.0936 8.87859 17.691 8.87859C19.2004 8.87859 20.5007 9.77522 21.0896 11.0656C21.4907 11.0935 21.8788 11.1684 22.2487 11.2847C22.8772 10.5059 23.2535 9.51457 23.2535 8.43526C23.2535 5.92971 21.2253 3.89856 18.7233 3.89856C16.6047 3.89856 14.8258 5.35492 14.3303 7.32245Z" fill="white"/>
</svg>
