<svg width="28" height="27" viewBox="0 0 28 27" fill="none" xmlns="http://www.w3.org/2000/svg">
<path fill-rule="evenodd" clip-rule="evenodd" d="M7.54666 23.1779C7.67236 22.8171 7.48188 22.4225 7.12122 22.2965C6.76056 22.1704 6.36629 22.3608 6.24059 22.7215L5.69325 24.2925C5.56756 24.6533 5.75803 25.0479 6.11869 25.1739C6.47936 25.2999 6.87362 25.1096 6.99932 24.7488L7.54666 23.1779ZM12.5695 23.1779C12.6952 22.8171 12.5047 22.4225 12.144 22.2965C11.7834 22.1704 11.3891 22.3608 11.2634 22.7215L10.716 24.2925C10.5904 24.6533 10.7808 25.0479 11.1415 25.1739C11.5021 25.2999 11.8964 25.1096 12.0221 24.7488L12.5695 23.1779ZM17.6184 23.2064C17.7441 22.8456 17.5536 22.451 17.193 22.325C16.8323 22.1989 16.4381 22.3892 16.3124 22.75L15.765 24.321C15.6393 24.6818 15.8298 25.0764 16.1905 25.2024C16.5511 25.3284 16.9454 25.1381 17.0711 24.7773L17.6184 23.2064ZM22.2681 22.2965C22.6288 22.4225 22.8192 22.8171 22.6935 23.1779L22.1462 24.7488C22.0205 25.1096 21.6263 25.2999 21.2656 25.1739C20.905 25.0479 20.7145 24.6533 20.8402 24.2925L21.3874 22.7215C21.5131 22.3608 21.9074 22.1704 22.2681 22.2965Z" fill="white"/>
<path fill-rule="evenodd" clip-rule="evenodd" d="M14.8074 5.4256C15.5078 5.9383 16.0899 6.6033 16.5053 7.37192C17.0061 7.1222 17.5707 6.98174 18.1681 6.98174C19.6774 6.98174 20.9777 7.87837 21.5667 9.16877C21.9677 9.19669 22.3559 9.27152 22.7257 9.38783C23.3542 8.60902 23.7306 7.61772 23.7306 6.53841C23.7306 4.03286 21.7023 2.00171 19.2003 2.00171C17.0818 2.00171 15.3028 3.45807 14.8074 5.4256Z" fill="white"/>
<mask id="mask0" mask-type="alpha" maskUnits="userSpaceOnUse" x="1" y="5" width="25" height="16">
<path fill-rule="evenodd" clip-rule="evenodd" d="M5.38488 20.4503C3.39618 19.7471 1.97119 17.8482 1.97119 15.6159C1.97119 13.4286 3.33938 11.5613 5.26546 10.8255C5.59388 7.90492 8.06866 5.63501 11.0728 5.63501C13.2952 5.63501 15.2278 6.87716 16.2162 8.70599C16.7169 8.45627 17.2815 8.31581 17.8789 8.31581C19.3883 8.31581 20.6886 9.21244 21.2775 10.5028C23.9002 10.6855 25.9712 12.8739 25.9712 15.5467C25.9712 17.6876 24.6424 19.5177 22.7659 20.2552C22.0126 20.9248 19.8062 20.9248 13.9257 20.9248C8.68311 20.9248 6.36077 20.9248 5.38488 20.4503Z" fill="white"/>
</mask>
<g mask="url(#mask0)">
<path d="M5.38483 20.4505L5.78748 19.6223L5.74077 19.5996L5.6918 19.5823L5.38483 20.4505ZM5.26541 10.8257L5.59405 11.6859L6.11785 11.4858L6.18051 10.9286L5.26541 10.8257ZM16.2161 8.70619L15.406 9.144L15.8297 9.92794L16.6271 9.53024L16.2161 8.70619ZM21.2774 10.503L20.4397 10.8854L20.6672 11.3836L21.2136 11.4217L21.2774 10.503ZM22.7658 20.2554L22.4289 19.3983L22.2764 19.4582L22.1539 19.5671L22.7658 20.2554ZM5.6918 19.5823C4.06011 19.0054 2.892 17.4467 2.892 15.6161H1.05029C1.05029 18.25 2.73214 20.4893 5.07787 21.3187L5.6918 19.5823ZM2.892 15.6161C2.892 13.8225 4.01341 12.2898 5.59405 11.6859L4.93679 9.9655C2.66526 10.8333 1.05029 13.0352 1.05029 15.6161H2.892ZM6.18051 10.9286C6.45724 8.46755 8.54368 6.55606 11.0728 6.55606V4.71436C7.59354 4.71436 4.73043 7.3427 4.35033 10.7228L6.18051 10.9286ZM11.0728 6.55606C12.943 6.55606 14.5718 7.6004 15.406 9.144L17.0262 8.26838C15.8837 6.15432 13.6472 4.71436 11.0728 4.71436V6.55606ZM16.6271 9.53024C17.0354 9.32047 17.3934 9.23003 17.8789 9.23686V7.39515C17.1695 7.402 16.3983 7.59246 15.8051 7.88213L16.6271 9.53024ZM17.8789 9.23686C19.014 9.23686 19.9947 9.91038 20.4397 10.8854L22.1152 10.1207C21.3822 8.51491 19.7626 7.39515 17.8789 7.39515V9.23686ZM21.2136 11.4217C23.3559 11.5708 25.0503 13.3601 25.0503 15.5469H26.892C26.892 12.3881 24.4444 9.80049 21.3414 9.58442L21.2136 11.4217ZM25.0503 15.5469C25.0503 17.2972 23.9646 18.7948 22.4289 19.3983L23.1025 21.1124C25.3203 20.2409 26.892 18.0783 26.892 15.5469H25.0503ZM22.1539 19.5671C22.1297 19.5887 22.0207 19.6674 21.685 19.7456C21.3304 19.8296 20.8768 19.8822 20.2128 19.9221C18.8599 20.0045 16.8659 20.0041 13.9257 20.0041V21.8457C16.8659 21.8457 18.9156 21.8454 20.3242 21.7604C21.0409 21.7167 21.6477 21.6438 22.1023 21.5394C22.576 21.4292 23.0253 21.2567 23.3776 20.9436L22.1539 19.5671ZM13.9257 20.0041C11.3044 20.0041 9.43322 20.0043 8.09541 19.9457C6.71447 19.8854 6.07877 19.764 5.78748 19.6223L4.98221 21.2786C5.66678 21.6115 6.68021 21.7272 8.01505 21.7856C9.39304 21.8456 11.3044 21.8457 13.9257 21.8457V20.0041Z" fill="#DDDDDD"/>
</g>
</svg>
