<svg width="27" height="22" viewBox="0 0 27 22" fill="none" xmlns="http://www.w3.org/2000/svg">
<path d="M0.650146 8.72278C0.650146 10.3228 1.95015 11.7228 3.65015 11.7228H4.55005H5.55005H13.05H13.9501H17.55H17.8501C18.1501 11.7228 18.4501 11.6228 18.7501 11.5228C19.8501 11.0228 20.55 10.0228 20.55 8.82281C20.55 7.22282 19.25 5.82281 17.55 5.82281C17.35 5.82281 17.1501 5.82279 16.9501 5.92279C16.9501 4.92279 16.5501 3.92278 15.7501 3.22278C15.1501 2.72278 14.35 2.42279 13.55 2.42279C12.85 2.42279 12.0501 2.6228 11.4501 3.1228C10.8501 1.6228 9.35012 0.622803 7.75012 0.622803C7.35012 0.622803 7.05015 0.722815 6.65015 0.822815C4.55015 1.42281 3.2501 3.62281 3.8501 5.82281V5.92279C3.7501 5.92279 3.75015 5.92279 3.65015 5.92279C1.95015 5.82279 0.650146 7.12278 0.650146 8.72278ZM3.55005 10.2228C2.75005 10.2228 2.05005 9.52278 2.05005 8.72278C2.05005 7.92278 2.75005 7.22278 3.55005 7.22278H3.65015L5.75012 7.32281L5.15015 5.22278C4.95015 4.52278 5.0501 3.92281 5.3501 3.32281C5.6501 2.72282 6.2501 2.3228 6.8501 2.1228C7.0501 2.0228 7.35005 2.02277 7.55005 2.02277C8.05005 2.02277 8.55007 2.12279 8.95007 2.42279C9.35007 2.72279 9.7501 3.1228 9.8501 3.6228L10.55 5.42279L12.05 4.22278C12.35 3.92278 12.8501 3.82281 13.2501 3.82281C13.7501 3.82281 14.15 4.02281 14.55 4.32281C14.95 4.72282 15.2501 5.22282 15.2501 5.82281V7.6228L17.05 7.32281C17.15 7.32281 17.2501 7.32281 17.3501 7.32281C18.1501 7.32281 18.8501 8.02281 18.8501 8.82281C18.8501 9.42282 18.4501 9.92278 17.9501 10.2228H17.8501H17.7501H17.6501H3.55005Z" fill="white"/>
<path d="M0.550049 14.5228V13.0228H23.6501C24.0501 13.0228 24.3501 12.9228 24.6501 12.6228C24.9501 12.3228 25.05 12.0228 25.05 11.6228C25.05 11.1228 24.65 10.6228 24.05 10.6228C23.65 10.6228 23.4501 10.9228 23.4501 11.2228V11.4228H21.9501V11.2228C21.9501 10.0228 22.95 9.1228 24.05 9.1228C25.45 9.1228 26.55 10.2228 26.55 11.6228C26.55 13.2228 25.2501 14.5228 23.6501 14.5228H0.550049Z" fill="white"/>
<path d="M20.35 21.2227C19.15 21.2227 18.25 20.2227 18.25 19.1227V18.9227H19.75V19.1227C19.75 19.5227 20.05 19.7227 20.35 19.7227C20.85 19.7227 21.35 19.3227 21.35 18.7227C21.35 17.9227 20.75 17.3228 19.95 17.3228H0.449951V15.8228H19.95C21.55 15.8228 22.85 17.1227 22.85 18.7227C22.85 20.1227 21.75 21.2227 20.35 21.2227Z" fill="white"/>
</svg>
